<?xml version="1.0" encoding="UTF-8" standalone="no"?>
<!-- Created with Inkscape (http://www.inkscape.org/) -->

<svg
   xmlns:dc="http://purl.org/dc/elements/1.1/"
   xmlns:cc="http://creativecommons.org/ns#"
   xmlns:rdf="http://www.w3.org/1999/02/22-rdf-syntax-ns#"
   xmlns:svg="http://www.w3.org/2000/svg"
   xmlns="http://www.w3.org/2000/svg"
   xmlns:sodipodi="http://sodipodi.sourceforge.net/DTD/sodipodi-0.dtd"
   xmlns:inkscape="http://www.inkscape.org/namespaces/inkscape"
   version="1.1"
   id="svg834"
   xml:space="preserve"
   width="180"
   height="180"
   viewBox="0 0 180 180"
   sodipodi:docname="dynasor-logo.svg"
   inkscape:version="0.92.3 (2405546, 2018-03-11)"
   inkscape:export-filename="/home/erhart/progs/logos/new-versions/dynasor-logo.png"
   inkscape:export-xdpi="96"
   inkscape:export-ydpi="96"><metadata
     id="metadata840"><rdf:RDF><cc:Work
         rdf:about=""><dc:format>image/svg+xml</dc:format><dc:type
           rdf:resource="http://purl.org/dc/dcmitype/StillImage" /><dc:title /></cc:Work></rdf:RDF></metadata><defs
     id="defs838" /><sodipodi:namedview
     pagecolor="#ffffff"
     bordercolor="#666666"
     borderopacity="1"
     objecttolerance="10"
     gridtolerance="10"
     guidetolerance="10"
     inkscape:pageopacity="0"
     inkscape:pageshadow="2"
     inkscape:window-width="2560"
     inkscape:window-height="1381"
     id="namedview836"
     showgrid="false"
     inkscape:zoom="2.3747003"
     inkscape:cx="-5.4402254"
     inkscape:cy="133.56286"
     inkscape:window-x="0"
     inkscape:window-y="35"
     inkscape:window-maximized="1"
     inkscape:current-layer="g842"
     fit-margin-top="3"
     fit-margin-left="6"
     fit-margin-right="6"
     fit-margin-bottom="3" /><g
     id="g842"
     inkscape:groupmode="layer"
     inkscape:label="ink_ext_XXXXXX"
     transform="matrix(1.3333333,0,0,-1.3333333,-44.122496,177.14118)">

<path
   style="display:inline;fill:#d35f5f;fill-opacity:1;fill-rule:evenodd;stroke:none;stroke-width:0.33938593px;stroke-linecap:butt;stroke-linejoin:miter;stroke-opacity:1"
   d="m 84.717156,43.130104 c 6.154442,-1.105434 13.303885,0.09992 18.482004,0.505212 0,0 0.62943,0.16707 0.88795,-0.76127 0.25602,-0.919394 -0.46698,-3.311465 0.64012,-5.742249 0.99104,-2.175964 1.21469,-3.706094 0.27576,-6.000253 -1.29306,-3.159396 7.24203,-2.804239 7.7605,-0.794822 0.55681,2.934361 -1.79778,8.924603 -0.98042,11.842614 0.81735,2.91801 11.64417,-2.746295 19.14348,-6.790384 11.99711,-4.0313 18.28725,-5.101669 32.57331,-2.029127 v 0 C 133.16375,31.500069 125.6587,52.539924 119.0132,62.829069 112.3677,73.118212 107.66424,78.867689 97.976177,78.712928 88.288134,78.558169 84.937605,76.403139 79.865952,74.145846 74.794268,71.888557 66.719308,63.733882 66.719308,63.733882 52.724692,61.332875 48.585036,76.846329 49.943667,86.415545 c 3.266759,10.200774 6.632891,10.111412 13.827874,10.768318 0.81685,2.712216 -6.888632,3.757427 -6.888632,3.757427 C 42.74006,96.612636 42.47737,80.48627 43.31443,69.211922 45.66865,55.348668 55.735894,49.3506 67.268011,45.780207 c 3.186029,-1.137521 9.111714,-2.534863 9.007992,-2.472403 0,0 0.649371,-0.139746 2.184605,-1.970082 -0.0462,-2.485654 -0.19403,-7.768958 -1.512744,-10.131289 -3.655305,-3.470019 5.555747,-3.799634 5.920197,-2.573959 2.034873,6.843515 1.523799,12.177344 1.68588,13.333441 z m 4.149726,-1.128799 c -0.398129,-2.14433 -0.472876,-3.430638 -0.306982,-5.338617 0.119011,-1.369058 -0.414558,-3.082077 -0.891899,-3.704513 -2.92369,-3.495236 4.7935,-3.270982 5.918408,-2.325927 0.672168,1.372425 0.340615,4.064839 0.745823,5.362283 0.797391,2.553165 0.342268,3.349424 0.714266,6.138893 -2.649171,-0.23556 -3.932263,-0.227227 -6.179616,-0.132119 z m -31.096789,6.492596 c 0.02683,-0.462341 -0.116036,-8.434791 -0.116756,-8.842998 -0.0077,-4.538118 -0.821308,-5.540238 -1.299522,-6.562662 -0.941183,-2.012263 4.913883,-1.898722 6.318249,-1.281409 0.01414,0.224576 0.441244,1.839213 0.586008,3.060754 0.357827,3.0194 0.01303,5.743494 0.737071,8.174111 0.385145,1.292931 5.399643,0.757292 6.227124,0.869512 -3.389995,1.358632 -10.363991,3.050582 -12.452174,4.582692 z"
   id="path960"
   inkscape:connector-curvature="0"
   sodipodi:nodetypes="ccsscczccczczcccccccccssccsccscccsscsscc" /></g></svg>